\relax 
\providecommand \oddpage@label [2]{}
\@writefile{lof}{\contentsline {figure}{\numberline {1}{\ignorespaces Histogram of step lengths (m) of from Weibull distribution with shape = 1.0 and scale = 70.0.\relax }}{2}}
\providecommand*\caption@xref[2]{\@setref\relax\@undefined{#1}}
\newlabel{fig:stepLength}{{1}{2}}
\@writefile{lof}{\contentsline {figure}{\numberline {2}{\ignorespaces Probability density of turning angles when the COA has the bearing of $\pi / 2$ and distance of 700 m. (A) The probability density for homerange movement behaviour with $\alpha = 0.075$ (eq. 7\hbox {}). (B) The density for mate searching movement (BRW) with $\delta = 0.005$ and 0 days of deployment (eq. 9\hbox {}).\relax }}{3}}
\newlabel{fig:turnangles}{{2}{3}}
\newlabel{eq:hrKappa}{{7}{3}}
\newlabel{eq:matesearchTA}{{9}{4}}
\@writefile{lof}{\contentsline {figure}{\numberline {3}{\ignorespaces The $\kappa $ parameter, (\textit  {i.e.} the focus of directional movement), decreases with increasing days since deployment (varying thickness of lines), and distance from the centre of attraction.\relax }}{4}}
\newlabel{fig:distTimeDecay}{{3}{4}}
